﻿ID;CATEGORY;NAME;ATTRIBUTE1;ATTRIBUTE2;VALUE1;VALUE2;DESCRIPTION;BRAND;FEATURE;PRICE;PVP_BIGBUY;PVD;IVA;VIDEO;EAN13;WIDTH;HEIGHT;DEPTH;WEIGHT;STOCK;DATE_ADD;DATE_UPD;IMAGE1;IMAGE2;IMAGE3;IMAGE4;IMAGE5;IMAGE6;IMAGE7;IMAGE8
D2010129;2399,2450,2451;"Ventilatore Portatile Spray FunFan ";Colore;;Nero;;"<p>Se sei il tipo di persona che è sempre alla ricerca di prodotti innovativi per combattere il caldo estivo, non perderti il <strong>ventilatore portatile spray FunFan</strong>. Si tratta di una soluzione pratica per mantenersi al fresco in una moltitudine di situazioni, come escursioni, gite in spiaggia, mentre si fa sport, ecc. Inoltre, grazie alle sue dimensioni ridotte (dimensioni: circa 9 x 26 x 6,5 cm) e peso ridotto (circa 130 g), lo puoi portare ovunque!<br /><br /><a href=""http://www.myfunfan.com""><strong>www.myfunfan.com</strong></a><br /><br />Questo <strong>ventilatore portatile</strong> originale ha un pulsante per attivare le eliche in PVC malleabili e una leva che spruzza l'acqua. Cosa c'è di più, puoi aggiungere il ghiaccio per aumentare la sensazione di freddo! Include 1 cacciavite a croce per inserire le batterie. Realizzato in PVC. Funzionamento a batterie (2 x AA, non incluse).</p>";1093;;19.9;7.05;2.79;21;0;4899888101772;28;10;7.5;0.185;41;"2015-05-05 13:12:03";"2016-01-12 09:56:53";http://dropshipping.bigbuy.eu/imgs/D2010128_78887.jpg;http://dropshipping.bigbuy.eu/imgs/D2010128_78898.jpg;http://dropshipping.bigbuy.eu/imgs/D2010128_78890.jpg;http://dropshipping.bigbuy.eu/imgs/D2010128_78889.jpg;http://dropshipping.bigbuy.eu/imgs/D2010128_78888.jpg;http://dropshipping.bigbuy.eu/imgs/D2010128_78886.jpg;;
D2010130;2399,2450,2451;"Ventilatore Portatile Spray FunFan ";Colore;;Bianco;;"<p>Se sei il tipo di persona che è sempre alla ricerca di prodotti innovativi per combattere il caldo estivo, non perderti il <strong>ventilatore portatile spray FunFan</strong>. Si tratta di una soluzione pratica per mantenersi al fresco in una moltitudine di situazioni, come escursioni, gite in spiaggia, mentre si fa sport, ecc. Inoltre, grazie alle sue dimensioni ridotte (dimensioni: circa 9 x 26 x 6,5 cm) e peso ridotto (circa 130 g), lo puoi portare ovunque!<br /><br /><a href=""http://www.myfunfan.com""><strong>www.myfunfan.com</strong></a><br /><br />Questo <strong>ventilatore portatile</strong> originale ha un pulsante per attivare le eliche in PVC malleabili e una leva che spruzza l'acqua. Cosa c'è di più, puoi aggiungere il ghiaccio per aumentare la sensazione di freddo! Include 1 cacciavite a croce per inserire le batterie. Realizzato in PVC. Funzionamento a batterie (2 x AA, non incluse).</p>";1093;;19.9;7.05;2.79;21;0;4899888107965;28;10;7.5;0.185;741;"2015-05-05 13:15:36";"2016-01-12 09:56:53";http://dropshipping.bigbuy.eu/imgs/D2010128_78887.jpg;http://dropshipping.bigbuy.eu/imgs/D2010128_78898.jpg;http://dropshipping.bigbuy.eu/imgs/D2010128_78890.jpg;http://dropshipping.bigbuy.eu/imgs/D2010128_78889.jpg;http://dropshipping.bigbuy.eu/imgs/D2010128_78888.jpg;http://dropshipping.bigbuy.eu/imgs/D2010128_78886.jpg;;
D2010131;2399,2450,2451;"Ventilatore Portatile Spray FunFan ";Colore;;Rosso;;"<p>Se sei il tipo di persona che è sempre alla ricerca di prodotti innovativi per combattere il caldo estivo, non perderti il <strong>ventilatore portatile spray FunFan</strong>. Si tratta di una soluzione pratica per mantenersi al fresco in una moltitudine di situazioni, come escursioni, gite in spiaggia, mentre si fa sport, ecc. Inoltre, grazie alle sue dimensioni ridotte (dimensioni: circa 9 x 26 x 6,5 cm) e peso ridotto (circa 130 g), lo puoi portare ovunque!<br /><br /><a href=""http://www.myfunfan.com""><strong>www.myfunfan.com</strong></a><br /><br />Questo <strong>ventilatore portatile</strong> originale ha un pulsante per attivare le eliche in PVC malleabili e una leva che spruzza l'acqua. Cosa c'è di più, puoi aggiungere il ghiaccio per aumentare la sensazione di freddo! Include 1 cacciavite a croce per inserire le batterie. Realizzato in PVC. Funzionamento a batterie (2 x AA, non incluse).</p>";1093;;19.9;7.05;2.79;21;0;4899888107972;28;10;7.5;0.185;570;"2015-05-05 13:18:19";"2016-01-12 09:56:53";http://dropshipping.bigbuy.eu/imgs/D2010128_78887.jpg;http://dropshipping.bigbuy.eu/imgs/D2010128_78898.jpg;http://dropshipping.bigbuy.eu/imgs/D2010128_78890.jpg;http://dropshipping.bigbuy.eu/imgs/D2010128_78889.jpg;http://dropshipping.bigbuy.eu/imgs/D2010128_78888.jpg;http://dropshipping.bigbuy.eu/imgs/D2010128_78886.jpg;;
H1000163;2399,2435,2440;"Sedia Pieghevole Campart Travel";"Referenza e Colore";;"CH0592 Blu Marino";;"<p>Se stai cercando comfort e convenienza allo stesso tempo, probabilmente adorerai la <strong>sedia pieghevole </strong><strong>Campart Travel</strong>! Questa <strong>sedia da campeggio imbottita</strong> è perfetta per i luoghi di campeggio, cortili, giardini, ecc. Ideale per il riposo e il relax. Può portare fino a 120 kg. Dimensioni: 66 x 70 / 120 x 87 / 115 cm circa. Semplice da trasportare ovunque, grazie al suo design funzionale ed elegante (dimensioni quando piegato: circa 66 x 110 x 10 cm). 7 posizioni regolabili e un poggiatesta incorporato. Struttura in alluminio e stoffa imbottita in poliestere. Altezza sedia: circa 50 cm.</p>";1024;;129;56.5;42.89;21;0;8713016005922;66;10;110;5.3;1;"2015-09-21 16:20:21";"2015-09-21 15:58:54";http://dropshipping.bigbuy.eu/imgs/silla_plegable_camping_00.jpg;http://dropshipping.bigbuy.eu/imgs/silla_plegable_camping_02.jpg;http://dropshipping.bigbuy.eu/imgs/silla_plegable_camping_04.jpg;http://dropshipping.bigbuy.eu/imgs/silla_plegable_camping_03.jpg;http://dropshipping.bigbuy.eu/imgs/silla_plegable_camping_01.jpg;;;
H1000162;2399,2435,2440;"Sedia Pieghevole Campart Travel";"Referenza e Colore";;"CH0596 Grigio";;"<p>Se stai cercando comfort e convenienza allo stesso tempo, probabilmente adorerai la <strong>sedia pieghevole </strong><strong>Campart Travel</strong>! Questa <strong>sedia da campeggio imbottita</strong> è perfetta per i luoghi di campeggio, cortili, giardini, ecc. Ideale per il riposo e il relax. Può portare fino a 120 kg. Dimensioni: 66 x 70 / 120 x 87 / 115 cm circa. Semplice da trasportare ovunque, grazie al suo design funzionale ed elegante (dimensioni quando piegato: circa 66 x 110 x 10 cm). 7 posizioni regolabili e un poggiatesta incorporato. Struttura in alluminio e stoffa imbottita in poliestere. Altezza sedia: circa 50 cm.</p>";1024;;129;56.5;42.89;21;0;8713016005960;66;10;110;5.3;2;"2015-09-21 16:20:25";"2015-09-21 15:58:54";http://dropshipping.bigbuy.eu/imgs/silla_plegable_camping_00.jpg;http://dropshipping.bigbuy.eu/imgs/silla_plegable_camping_02.jpg;http://dropshipping.bigbuy.eu/imgs/silla_plegable_camping_04.jpg;http://dropshipping.bigbuy.eu/imgs/silla_plegable_camping_03.jpg;http://dropshipping.bigbuy.eu/imgs/silla_plegable_camping_01.jpg;;;
F1520329;2399,2435,2440;"Poggiapiedi Pieghevole Campart Travel";"Referenza e Colore";;"CH0593 Blu Marino";;"<p>Approfitta di un'esperienza rilassante con l'aiuto del <strong>poggiapiedi pieghevole Campart Travel</strong>! Questo<strong> poggiapiedi imbottito</strong> è l'accessorio ideale per sedie da cortile, terrazzo, giardini, luoghi da campeggio, ecc. Possiede 2 ganci di circa 3 cm di diametro che possono essere facilmente attaccate alla barra inferiore delle sedie (utilizzabile solo per sedie con una barra inferiore di circa 2 cm di diametro). Struttura in alluminio. Tessuto: poliestere. Dimensioni: circa 51 x 47 x 96 cm (dimensioni quando ripiegato: circa 51 x 12 x 96 cm). Ideale per le sedie pieghevoli Campart Travel CH0592 e CH0596.</p>";1024;;46.6;19.9;14.78;21;0;8713016005939;53;13;97;1.377;1;"2015-09-21 16:17:59";"2015-09-21 15:58:54";http://dropshipping.bigbuy.eu/imgs/reposapies_CH-0609_00.jpg;http://dropshipping.bigbuy.eu/imgs/reposapies_CH-0609_01.jpg;http://dropshipping.bigbuy.eu/imgs/reposapies_CH-0609_02.jpg;http://dropshipping.bigbuy.eu/imgs/reposapies_CH-0609_08.jpg;http://dropshipping.bigbuy.eu/imgs/reposapies_CH-0609_07.jpg;http://dropshipping.bigbuy.eu/imgs/reposapies_CH-0609_06.jpg;http://dropshipping.bigbuy.eu/imgs/reposapies_CH-0609_05.jpg;http://dropshipping.bigbuy.eu/imgs/reposapies_CH-0609_04.jpg
F1520328;2399,2435,2440;"Poggiapiedi Pieghevole Campart Travel";"Referenza e Colore";;"CH0597 Grigio";;"<p>Approfitta di un'esperienza rilassante con l'aiuto del <strong>poggiapiedi pieghevole Campart Travel</strong>! Questo<strong> poggiapiedi imbottito</strong> è l'accessorio ideale per sedie da cortile, terrazzo, giardini, luoghi da campeggio, ecc. Possiede 2 ganci di circa 3 cm di diametro che possono essere facilmente attaccate alla barra inferiore delle sedie (utilizzabile solo per sedie con una barra inferiore di circa 2 cm di diametro). Struttura in alluminio. Tessuto: poliestere. Dimensioni: circa 51 x 47 x 96 cm (dimensioni quando ripiegato: circa 51 x 12 x 96 cm). Ideale per le sedie pieghevoli Campart Travel CH0592 e CH0596.</p>";1024;;46.6;19.9;14.78;21;0;8713016005977;53;13;97;1.377;7;"2015-09-21 16:17:59";"2015-09-21 15:58:54";http://dropshipping.bigbuy.eu/imgs/reposapies_CH-0609_00.jpg;http://dropshipping.bigbuy.eu/imgs/reposapies_CH-0609_01.jpg;http://dropshipping.bigbuy.eu/imgs/reposapies_CH-0609_02.jpg;http://dropshipping.bigbuy.eu/imgs/reposapies_CH-0609_08.jpg;http://dropshipping.bigbuy.eu/imgs/reposapies_CH-0609_07.jpg;http://dropshipping.bigbuy.eu/imgs/reposapies_CH-0609_06.jpg;http://dropshipping.bigbuy.eu/imgs/reposapies_CH-0609_05.jpg;http://dropshipping.bigbuy.eu/imgs/reposapies_CH-0609_04.jpg
H4502058;2399,2400,2404;"Orologio da Parete Star Wars";;;;;"<p>I fan di Star Wars non potranno fare a meno di appendere l'<strong>orologio da parete Star Wars</strong> in casa loro! Realizzato in plastica. Funziona a batterie (1 x AA, non incluse). Diametro circa: 25,5 cm. Spessore circa: 3,5 cm.</p>";1212;;22.5;9.23;4.72;21;;6950687214204;26;25.5;3.8;0.287;130;"2015-11-26 16:51:22";"2016-08-08 21:09:24";http://dropshipping.bigbuy.eu/imgs/H4502058_84712.jpg;http://dropshipping.bigbuy.eu/imgs/H4502058_84713.jpg;http://dropshipping.bigbuy.eu/imgs/H4502058_84711.jpg;http://dropshipping.bigbuy.eu/imgs/H4502058_84710.jpg;;;;
G0500195;2399,2400,2421;"Braccialetto Sportivo a LED MegaLed";Colore;;Rosso;;"<p>Se ti piace praticare la corsa, il ciclismo, o qualunque sport all'aria aperta, non può mancare tra i tuoi accessori il braccialetto per lo sport a LED MegaLed. Con questo<strong> braccialetto di sicurezza</strong> sarai visibile ai motorini e alle auto nell'oscurità, così da poter stare molto più sicuro e tranquillo. È dotato di 2 luci a LED con 2 possibili soluzioni (luce fissa ed intermittente). La lunghezza massima è di circa 55 cm e quella minima è di circa 42 cm. Molto leggero (circa 50 g). Autonomia circa: 24-40 ore. Funziona a batterie (2 x CR2023, incluse).</p><p> </p>";1132;;22;8.2;4.2;21;;8436545443507;20;3;4;0.049;22;"2015-11-24 15:40:43";"2016-01-08 12:34:41";http://dropshipping.bigbuy.eu/imgs/G0500194_87774.jpg;http://dropshipping.bigbuy.eu/imgs/G0500194_87775.jpg;http://dropshipping.bigbuy.eu/imgs/G0500194_87773.jpg;http://dropshipping.bigbuy.eu/imgs/G0500194_87772.jpg;;;;
G0500196;2399,2400,2421;"Braccialetto Sportivo a LED MegaLed";Colore;;Verde;;"<p>Se ti piace praticare la corsa, il ciclismo, o qualunque sport all'aria aperta, non può mancare tra i tuoi accessori il braccialetto per lo sport a LED MegaLed. Con questo<strong> braccialetto di sicurezza</strong> sarai visibile ai motorini e alle auto nell'oscurità, così da poter stare molto più sicuro e tranquillo. È dotato di 2 luci a LED con 2 possibili soluzioni (luce fissa ed intermittente). La lunghezza massima è di circa 55 cm e quella minima è di circa 42 cm. Molto leggero (circa 50 g). Autonomia circa: 24-40 ore. Funziona a batterie (2 x CR2023, incluse).</p><p> </p>";1132;;22;8.2;4.2;21;;8436545443507;20;3;4;0.049;37;"2015-11-24 15:41:54";"2016-01-08 12:34:41";http://dropshipping.bigbuy.eu/imgs/G0500194_87774.jpg;http://dropshipping.bigbuy.eu/imgs/G0500194_87775.jpg;http://dropshipping.bigbuy.eu/imgs/G0500194_87773.jpg;http://dropshipping.bigbuy.eu/imgs/G0500194_87772.jpg;;;;
I2500333;2399,2400,2404;"Orologio da Parete Mom's Diner";;;;;"<p>Decora la tua cucina con l'originale <strong>orologio da parete</strong> <strong>Mom's Diner</strong> in stile vintage! È realizzato in legno. Diametro: 58 cm circa. Spessore: 0,8 cm circa. Funziona a pile (1 x AA, non inclusa).</p>";9;;42.5;19.85;10.16;21;;4029811345052;59;59;6;2.1;2;"2015-12-31 08:53:56";"2016-07-21 13:05:12";http://dropshipping.bigbuy.eu/imgs/I2500333_88061.jpg;http://dropshipping.bigbuy.eu/imgs/I2500333_88060.jpg;http://dropshipping.bigbuy.eu/imgs/I2500333_88059.jpg;http://dropshipping.bigbuy.eu/imgs/I2500333_88058.jpg;;;;
I2500334;2399,2400,2404;"Orologio da Parete Coffee Endless Cup";;;;;"<p>Se sei un appassionato di caffè, non puoi rimanere senza l'<strong>orologio da parete Coffee Endless Cup</strong>! Un orologio vintage in legno con un design in perfetto stile caffettoso! Diametro: 58 cm circa. Spessore: 0,8 cm circa. Funziona a pile (1 x AA, non inclusa).</p>";1254;;42.5;19.85;10.16;21;;4029811345069;59;59;6;2.1;4;"2016-08-22 08:44:10";"2016-08-30 13:41:52";http://dropshipping.bigbuy.eu/imgs/I2500334_88065.jpg;http://dropshipping.bigbuy.eu/imgs/I2500334_88064.jpg;http://dropshipping.bigbuy.eu/imgs/I2500334_88063.jpg;http://dropshipping.bigbuy.eu/imgs/I2500334_88062.jpg;;;;
V0000252;2399,2400,2419;"Insegna Dito Vintage Look";Design;;Stop!;;"<p>Se sei alla ricerca di una <strong>decorazione vintage</strong> originale e divertente per la tua casa, l'<strong>insegna dito Vintage Look</strong> ti conquisterà con il suo stile e i suoi simpatici messaggi! Realizzata in legno. Dimensioni: 69 x 17 x 1 cm circa.</p>";1254;;15.99;7.39;3.79;21;;4029811346196;69;17;1;0.63;21;"2016-02-11 11:03:35";"2016-02-29 09:49:10";http://dropshipping.bigbuy.eu/imgs/V0000251_89745.jpg;http://dropshipping.bigbuy.eu/imgs/V0000251_89746.jpg;http://dropshipping.bigbuy.eu/imgs/V0000251_89744.jpg;http://dropshipping.bigbuy.eu/imgs/V0000251_89743.jpg;http://dropshipping.bigbuy.eu/imgs/V0000251_89742.jpg;http://dropshipping.bigbuy.eu/imgs/V0000251_89741.jpg;;
V0000253;2399,2400,2419;"Insegna Dito Vintage Look";Design;;"Adults Only";;"<p>Se sei alla ricerca di una <strong>decorazione vintage</strong> originale e divertente per la tua casa, l'<strong>insegna dito Vintage Look</strong> ti conquisterà con il suo stile e i suoi simpatici messaggi! Realizzata in legno. Dimensioni: 69 x 17 x 1 cm circa.</p>";1254;;15.99;7.39;3.79;21;;4029811346202;69;17;1;0.63;18;"2016-02-11 11:05:45";"2016-02-29 09:49:10";http://dropshipping.bigbuy.eu/imgs/V0000251_89745.jpg;http://dropshipping.bigbuy.eu/imgs/V0000251_89746.jpg;http://dropshipping.bigbuy.eu/imgs/V0000251_89744.jpg;http://dropshipping.bigbuy.eu/imgs/V0000251_89743.jpg;http://dropshipping.bigbuy.eu/imgs/V0000251_89742.jpg;http://dropshipping.bigbuy.eu/imgs/V0000251_89741.jpg;;
V0000254;2399,2400,2419;"Insegna Dito Vintage Look";Design;;Talk;;"<p>Se sei alla ricerca di una <strong>decorazione vintage</strong> originale e divertente per la tua casa, l'<strong>insegna dito Vintage Look</strong> ti conquisterà con il suo stile e i suoi simpatici messaggi! Realizzata in legno. Dimensioni: 69 x 17 x 1 cm circa.</p>";1254;;15.99;7.39;3.79;21;;4029811346318;69;17;1;0.63;8;"2016-02-11 11:07:52";"2016-02-29 09:49:10";http://dropshipping.bigbuy.eu/imgs/V0000251_89745.jpg;http://dropshipping.bigbuy.eu/imgs/V0000251_89746.jpg;http://dropshipping.bigbuy.eu/imgs/V0000251_89744.jpg;http://dropshipping.bigbuy.eu/imgs/V0000251_89743.jpg;http://dropshipping.bigbuy.eu/imgs/V0000251_89742.jpg;http://dropshipping.bigbuy.eu/imgs/V0000251_89741.jpg;;
V0000256;2399,2400,2419;"Freccia Decorativa Vintage Look";Design;;"Go Left";;"<p>Stupisci tutti con la divertente ed originale <strong>freccia decorativa Vintage Look</strong>! Le pareti di casa tua non resteranno indifferenti a nessuno! Fabbricata in legno. Misure appross.: 25 x 40 x 1 cm.</p>";1254;;13.9;6.39;3.29;21;;4029811346325;0.8;25.5;40;0.376;4;"2016-02-11 11:13:00";"2016-02-29 10:39:59";http://dropshipping.bigbuy.eu/imgs/V0000255_89756.jpg;http://dropshipping.bigbuy.eu/imgs/V0000255_89761.jpg;http://dropshipping.bigbuy.eu/imgs/V0000255_89760.jpg;http://dropshipping.bigbuy.eu/imgs/V0000255_89759.jpg;http://dropshipping.bigbuy.eu/imgs/V0000255_89758.jpg;http://dropshipping.bigbuy.eu/imgs/V0000255_89757.jpg;;
V0000257;2399,2400,2419;"Freccia Decorativa Vintage Look";Design;;Exit;;"<p>Stupisci tutti con la divertente ed originale <strong>freccia decorativa Vintage Look</strong>! Le pareti di casa tua non resteranno indifferenti a nessuno! Fabbricata in legno. Misure appross.: 25 x 40 x 1 cm.</p>";1254;;13.9;6.39;3.29;21;;4029811346332;0.8;25.5;40;0.376;19;"2016-02-11 11:16:56";"2016-02-29 10:39:59";http://dropshipping.bigbuy.eu/imgs/V0000255_89756.jpg;http://dropshipping.bigbuy.eu/imgs/V0000255_89761.jpg;http://dropshipping.bigbuy.eu/imgs/V0000255_89760.jpg;http://dropshipping.bigbuy.eu/imgs/V0000255_89759.jpg;http://dropshipping.bigbuy.eu/imgs/V0000255_89758.jpg;http://dropshipping.bigbuy.eu/imgs/V0000255_89757.jpg;;
V0000258;2399,2400,2419;"Freccia Decorativa Vintage Look";Design;;"Cold beer here";;"<p>Stupisci tutti con la divertente ed originale <strong>freccia decorativa Vintage Look</strong>! Le pareti di casa tua non resteranno indifferenti a nessuno! Fabbricata in legno. Misure appross.: 25 x 40 x 1 cm.</p>";1254;;13.9;6.39;3.29;21;;4029811346349;0.8;25.5;40;0.376;20;"2016-02-11 11:19:11";"2016-02-29 10:39:59";http://dropshipping.bigbuy.eu/imgs/V0000255_89756.jpg;http://dropshipping.bigbuy.eu/imgs/V0000255_89761.jpg;http://dropshipping.bigbuy.eu/imgs/V0000255_89760.jpg;http://dropshipping.bigbuy.eu/imgs/V0000255_89759.jpg;http://dropshipping.bigbuy.eu/imgs/V0000255_89758.jpg;http://dropshipping.bigbuy.eu/imgs/V0000255_89757.jpg;;
V0200190;2399,2400,2699;"Ciotola in Bambù TakeTokio";Colore;;Bianco;;"<p>Arricchisci la selezione dei tuoi <strong>utensili da cucina</strong> con la <strong>ciotola in bambù</strong> <strong>TakeTokio</strong>, una <strong>ciotola da cucina</strong> funzionale e dal design moderno è perfetta come <strong>insalatiera</strong>, portafrutta, ecc. Realizzata in pregiato legno di bambù. Dimensioni (diametro x altezza): 25 x 15 cm circa. Diametro della base: 9 cm circa.</p><p><a href=""http://www.taketokio.com/"" target=""_blank""><strong>www.taketokio.com</strong></a></p>";1229;;19.8;8.83;4.49;21;;8718158904577;25;25;15;0.39;0;"-0001-11-30 00:00:00";"-0001-11-30 00:00:00";http://dropshipping.bigbuy.eu/imgs/V0200189_90746.jpg;http://dropshipping.bigbuy.eu/imgs/V0200189_90747.jpg;http://dropshipping.bigbuy.eu/imgs/V0200189_90745.jpg;http://dropshipping.bigbuy.eu/imgs/V0200189_90744.jpg;http://dropshipping.bigbuy.eu/imgs/V0200189_90743.jpg;http://dropshipping.bigbuy.eu/imgs/V0200189_90742.jpg;;
V0200192;2399,2400,2699;"Ciotola in Bambù TakeTokio";Colore;;Grigio;;"<p>Arricchisci la selezione dei tuoi <strong>utensili da cucina</strong> con la <strong>ciotola in bambù</strong> <strong>TakeTokio</strong>, una <strong>ciotola da cucina</strong> funzionale e dal design moderno è perfetta come <strong>insalatiera</strong>, portafrutta, ecc. Realizzata in pregiato legno di bambù. Dimensioni (diametro x altezza): 25 x 15 cm circa. Diametro della base: 9 cm circa.</p><p><a href=""http://www.taketokio.com/"" target=""_blank""><strong>www.taketokio.com</strong></a></p>";1229;;19.8;8.83;4.49;21;;8718158904577;25;25;15;0.39;26;"-0001-11-30 00:00:00";"-0001-11-30 00:00:00";http://dropshipping.bigbuy.eu/imgs/V0200189_90746.jpg;http://dropshipping.bigbuy.eu/imgs/V0200189_90747.jpg;http://dropshipping.bigbuy.eu/imgs/V0200189_90745.jpg;http://dropshipping.bigbuy.eu/imgs/V0200189_90744.jpg;http://dropshipping.bigbuy.eu/imgs/V0200189_90743.jpg;http://dropshipping.bigbuy.eu/imgs/V0200189_90742.jpg;;
V0200191;2399,2400,2699;"Ciotola in Bambù TakeTokio";Colore;;Nero;;"<p>Arricchisci la selezione dei tuoi <strong>utensili da cucina</strong> con la <strong>ciotola in bambù</strong> <strong>TakeTokio</strong>, una <strong>ciotola da cucina</strong> funzionale e dal design moderno è perfetta come <strong>insalatiera</strong>, portafrutta, ecc. Realizzata in pregiato legno di bambù. Dimensioni (diametro x altezza): 25 x 15 cm circa. Diametro della base: 9 cm circa.</p><p><a href=""http://www.taketokio.com/"" target=""_blank""><strong>www.taketokio.com</strong></a></p>";1229;;19.8;8.83;4.49;21;;8718158904577;25;25;15;0.39;22;"-0001-11-30 00:00:00";"-0001-11-30 00:00:00";http://dropshipping.bigbuy.eu/imgs/V0200189_90746.jpg;http://dropshipping.bigbuy.eu/imgs/V0200189_90747.jpg;http://dropshipping.bigbuy.eu/imgs/V0200189_90745.jpg;http://dropshipping.bigbuy.eu/imgs/V0200189_90744.jpg;http://dropshipping.bigbuy.eu/imgs/V0200189_90743.jpg;http://dropshipping.bigbuy.eu/imgs/V0200189_90742.jpg;;
V0200360;2399,2708,2725;"Scatola porta Tè Flower Vintage Coconut";Colore;;Rosa;;"<p>Gli amanti della moda vintage non potranno resistere di fronte all'adorabile <strong>scatola porta tè Flower Vintage Coconut</strong>! Una <strong>scatola vintage</strong> in legno ottima come decorazione e utilissima per sistemare le bustine di tè o di altri infusi. Dispone di un coperchio in cristallo e vari scompartimenti. Dimensioni: circa 23 x 7 x 23 cm.</p><p><a href=""http://www.vintagecoconut.com"" target=""_blank""><strong>www.vintagecoconut.com</strong></a></p>";1254;;25.9;10.87;5.58;21;;8711295889547;7.1;23;23;0.795;13;"-0001-11-30 00:00:00";"-0001-11-30 00:00:00";http://dropshipping.bigbuy.eu/imgs/V0200328_92649.jpg;http://dropshipping.bigbuy.eu/imgs/V0200328_92648.jpg;http://dropshipping.bigbuy.eu/imgs/V0200328_92647.jpg;;;;;
V0200361;2399,2708,2725;"Scatola porta Tè Flower Vintage Coconut";Colore;;Azzurro;;"<p>Gli amanti della moda vintage non potranno resistere di fronte all'adorabile <strong>scatola porta tè Flower Vintage Coconut</strong>! Una <strong>scatola vintage</strong> in legno ottima come decorazione e utilissima per sistemare le bustine di tè o di altri infusi. Dispone di un coperchio in cristallo e vari scompartimenti. Dimensioni: circa 23 x 7 x 23 cm.</p><p><a href=""http://www.vintagecoconut.com"" target=""_blank""><strong>www.vintagecoconut.com</strong></a></p>";1254;;25.9;10.87;5.58;21;;8711295889547;7.1;23;23;0.795;21;"-0001-11-30 00:00:00";"-0001-11-30 00:00:00";http://dropshipping.bigbuy.eu/imgs/V0200328_92649.jpg;http://dropshipping.bigbuy.eu/imgs/V0200328_92648.jpg;http://dropshipping.bigbuy.eu/imgs/V0200328_92647.jpg;;;;;
V0200353;2399,2435,2438;"Ventilatore a Pistola classico per Barbecue BBQ Classics";;;;;"<p>Utilizza i migliori barbecue alimentando il fuoco con il <strong>ventilatore a pistola classico per babecue BBQ Classics</strong>! Basterà solo fare una leggera pressione sul pulsante per far uscire l'aria.</p><p><a href=""http://www.bbqclassics.com"" target=""_blank""><strong>www.bbqclassics.com</strong></a></p><ul><li>Realizzato in plastica e metallo</li><li>Dimensioni: 25 x 18 x 4 cm circa</li></ul>";1009;;9.3;4.24;2.16;21;;8718158032706;11;5.5;22;0.167;60;"2016-06-15 17:21:58";"2016-09-13 09:56:07";http://dropshipping.bigbuy.eu/imgs/V0200353_92695.jpg;http://dropshipping.bigbuy.eu/imgs/V0200353_92696.jpg;http://dropshipping.bigbuy.eu/imgs/V0200353_92694.jpg;;;;;
V1600123;2399,2708,2725;"Contenitore Portagiochi Frozen (32 x 23 cm)";;;;;"<p>Non c'è nulla di meglio che tenere le camere dei più piccini in ordine in modo originale e divertente. Con il <strong>contenitore portagiochi Frozen (32 x 23 cm)</strong> sarà semplicissimo!</p><ul><li>Realizzato in polipropilene</li><li>Dimensioni aprossimative: 32 x 15 x 23 cm</li><li>Età consigliata: +3 anni</li></ul><p> </p>";1089;;21.9;9.93;5.16;21;;8412842766006;34;15;23;0.331;48;"2016-07-18 07:49:54";"2016-08-08 21:04:27";http://dropshipping.bigbuy.eu/imgs/V1600123_93002.jpg;http://dropshipping.bigbuy.eu/imgs/V1600123_93005.jpg;http://dropshipping.bigbuy.eu/imgs/V1600123_93004.jpg;http://dropshipping.bigbuy.eu/imgs/V1600123_93003.jpg;;;;
V1600124;2399,2708,2725;"Contenitore Portagiochi Spiderman  (32 x 23 cm)";;;;;"<p>Desideri sorprendere i più piccini con un regalo molto originale? Il <strong>contenitore portagiochi Spiderman (32 x 23 cm)</strong> decorerà e metterà in ordine le loro camerette.</p><ul><li>Realizzato in polipropilene</li><li>Dimensioni approssimative: 32 x 15 x 23 cm</li><li>Età consigliata: +3 anni</li></ul>";1209;;21.9;9.93;5.16;21;;8412842766037;34;15;23;0.331;52;"2016-07-18 07:50:20";"2016-08-08 21:09:24";http://dropshipping.bigbuy.eu/imgs/V1600124_93006.jpg;http://dropshipping.bigbuy.eu/imgs/V1600124_93008.jpg;http://dropshipping.bigbuy.eu/imgs/V1600124_93007.jpg;;;;;
V1600125;2399,2708,2725;"Contenitore Portagiochi Frozen (45 x 32 cm)";;;;;"<p>Insegna ai tuoi bambini a tenere i giocattoli conservati ben in ordine con l'aiuto del <strong>contenitore portagiochi Frozen (45 x 32 cm)</strong>. Il <strong>portagiocattoli</strong> che tutte le bambine sognano!</p><ul><li>Realizzato in polipropilene</li><li>Dimensioni: circa 45 x 22 x 32 cm</li><li>Età consigliata: +3 anni</li></ul>";1089;;39.6;18.43;9.38;21;;8412842766129;37;22;45;0.775;17;"2016-07-18 07:50:24";"2016-08-08 21:04:27";http://dropshipping.bigbuy.eu/imgs/V1600125_93010.jpg;http://dropshipping.bigbuy.eu/imgs/V1600125_93011.jpg;http://dropshipping.bigbuy.eu/imgs/V1600125_93009.jpg;;;;;
V1600126;2399,2708,2725;"Contenitore Portagiochi Spiderman (45 x 32 cm)";;;;;"<p>I piccoli di casa ora possono ordinare e riporre i loro giocattoli facilmente grazie al <strong>c<strong>ontenitore <strong>portagiochi</strong></strong> Spiderman</strong><strong> (45 x 32 cm)</strong>. Il <strong>c<strong>ontenitore <strong>portagiochi</strong></strong> </strong>preferito dai bambini!</p><ul><li>Fabbricato in polipropilene</li><li>Dimensioni: circa 45 x 22 x 32 cm</li><li>Età raccomandata: +3 anni</li></ul>";1209;;39.6;18.43;9.38;21;;8412842766150;37;22;45;0.775;18;"2016-07-18 07:50:27";"2016-08-08 21:09:24";http://dropshipping.bigbuy.eu/imgs/V1600126_93012.jpg;http://dropshipping.bigbuy.eu/imgs/V1600126_93014.jpg;http://dropshipping.bigbuy.eu/imgs/V1600126_93013.jpg;;;;;
